…
library("tidyverse")
#Delete the participants' data that fail the attention checks
Dat_attention_check_passed <- Dat %>% filter(Attention1 == 1)

type_gender_know <- Dat_attention_check_passed %>% select(Gender, Prolific.ID, starts_with(c("Body","Judgment")))
#type_gender_know <- 
  #type_gender_know %>% 
 # rename(Body.Naked_1 = Body.Naked._1, Body.Naked_2 = Body.Naked._2)
test <- type_gender_know %>% select(Gender, Body.Bowel_1, Body.Bowel_2)

test %>% pivot_longer(cols=c(Body.Bowel_1, Body.Bowel_2), names_to = "doctor_type", values_to = "scores", names_prefix="Body.Bowel_")
```

```
## # A tibble: 990 x 3
##    Gender doctor_type scores
##     <int> <chr>        <int>
##  1      2 1                6
##  2      2 2                4
##  3      2 1                2
##  4      2 2                2
##  5      2 1                3
##  6      2 2                6
##  7      2 1                5
##  8      2 2                5
##  9      2 1                4
## 10      2 2                3
## # ... with 980 more rows
```
…
